{
  "qInfo": {
    "qId": "c0f8a1c8-ecd4-450d-9ac8-87ccef06c6b4",
    "qType": "variable"
  },
  "qMetaDef": {},
  "qName": "withPast",
  "qNumberPresentation": {
    "qType": "U",
    "qnDec": 10,
    "qUseThou": 0
  },
  "qDefinition": "true()",
  "qIsScriptCreated": true
}