{
  "qInfo": {
    "qId": "d2c5c6c8-cac9-4ee3-a2d6-a2086597c87c",
    "qType": "variable"
  },
  "qMetaDef": {},
  "qName": "vRecruitmentMaxDate",
  "qNumberPresentation": {
    "qType": "U",
    "qnDec": 10,
    "qUseThou": 0
  },
  "qDefinition": "2019-04-01",
  "qIsScriptCreated": true
}