{
  "qInfo": {
    "qId": "d5c678c6-7234-4f86-a3d7-a83bbc7e6d0f",
    "qType": "variable"
  },
  "qMetaDef": {},
  "qName": "vShipmentMaxDate",
  "qNumberPresentation": {
    "qType": "U",
    "qnDec": 10,
    "qUseThou": 0
  },
  "qDefinition": "2019-04-01",
  "qIsScriptCreated": true
}