{
  "qInfo": {
    "qId": "ecb0f062-3930-4b5a-a911-7c37700ac413",
    "qType": "variable"
  },
  "qMetaDef": {},
  "qName": "QFDFFile",
  "qNumberPresentation": {
    "qType": "U",
    "qnDec": 10,
    "qUseThou": 0
  },
  "qDefinition": "lib://FTP CONNECTION/Dev/Comparison CSV"
}