{
  "qProperty": {
    "qInfo": {
      "qId": "b1944958-ac1f-443a-aa20-0a7aec97ef35",
      "qType": "sheet"
    },
    "qMetaDef": {
      "title": "Site shipments",
      "description": "Comparison of shipments to sites for two results."
    },
    "rank": 10.25,
    "thumbnail": {
      "qStaticContentUrlDef": {
        "qUrl": "/appcontent/9207f488-24a3-4b7e-a945-d436c7633624/Distribution Management-04.jpg"
      }
    },
    "columns": 36,
    "rows": 18,
    "cells": [
      {
        "name": "ajKAnjh",
        "type": "qlik-multi-kpi",
        "col": 11,
        "row": 11,
        "colspan": 6,
        "rowspan": 4,
        "bounds": {
          "y": 61.111111111111114,
          "x": 30.555555555555557,
          "width": 16.666666666666664,
          "height": 22.22222222222222
        }
      },
      {
        "name": "JrUJyD",
        "type": "qlik-multi-kpi",
        "col": 19,
        "row": 11,
        "colspan": 6,
        "rowspan": 4,
        "bounds": {
          "y": 61.111111111111114,
          "x": 52.77777777777778,
          "width": 16.666666666666664,
          "height": 22.22222222222222
        }
      },
      {
        "name": "XTPEW",
        "type": "filterpane",
        "col": 32,
        "row": 6,
        "colspan": 4,
        "rowspan": 2,
        "bounds": {
          "y": 33.33333333333333,
          "x": 88.88888888888889,
          "width": 11.11111111111111,
          "height": 11.11111111111111
        }
      },
      {
        "name": "vMbfs",
        "type": "filterpane",
        "col": 32,
        "row": 2,
        "colspan": 4,
        "rowspan": 2,
        "bounds": {
          "y": 11.11111111111111,
          "x": 88.88888888888889,
          "width": 11.11111111111111,
          "height": 11.11111111111111
        }
      },
      {
        "name": "XKBdGpy",
        "type": "filterpane",
        "col": 32,
        "row": 4,
        "colspan": 4,
        "rowspan": 2,
        "bounds": {
          "y": 22.22222222222222,
          "x": 88.88888888888889,
          "width": 11.11111111111111,
          "height": 11.11111111111111
        }
      },
      {
        "name": "Qxbmp",
        "type": "combochart",
        "col": 0,
        "row": 0,
        "colspan": 32,
        "rowspan": 9,
        "bounds": {
          "y": 0,
          "x": 0,
          "width": 88.88888888888889,
          "height": 50
        }
      },
      {
        "name": "AgPJJE",
        "type": "swr-sense-navigation",
        "col": 0,
        "row": 16,
        "colspan": 6,
        "rowspan": 2,
        "bounds": {
          "y": 88.88888888888889,
          "x": 0,
          "width": 16.666666666666664,
          "height": 11.11111111111111
        }
      },
      {
        "name": "eevPS",
        "type": "swr-sense-navigation",
        "col": 6,
        "row": 16,
        "colspan": 5,
        "rowspan": 2,
        "bounds": {
          "y": 88.88888888888889,
          "x": 16.666666666666664,
          "width": 13.88888888888889,
          "height": 11.11111111111111
        }
      },
      {
        "name": "Ty",
        "type": "swr-sense-navigation",
        "col": 11,
        "row": 16,
        "colspan": 5,
        "rowspan": 2,
        "bounds": {
          "y": 88.88888888888889,
          "x": 30.555555555555557,
          "width": 13.88888888888889,
          "height": 11.11111111111111
        }
      },
      {
        "name": "KjRSZ",
        "type": "swr-sense-navigation",
        "col": 16,
        "row": 16,
        "colspan": 5,
        "rowspan": 2,
        "bounds": {
          "y": 88.88888888888889,
          "x": 44.44444444444444,
          "width": 13.88888888888889,
          "height": 11.11111111111111
        }
      },
      {
        "name": "fJuyXr",
        "type": "swr-sense-navigation",
        "col": 21,
        "row": 16,
        "colspan": 5,
        "rowspan": 2,
        "bounds": {
          "y": 88.88888888888889,
          "x": 58.333333333333336,
          "width": 13.88888888888889,
          "height": 11.11111111111111
        }
      },
      {
        "name": "gucYNPL",
        "type": "swr-sense-navigation",
        "col": 26,
        "row": 16,
        "colspan": 5,
        "rowspan": 2,
        "bounds": {
          "y": 88.88888888888889,
          "x": 72.22222222222221,
          "width": 13.88888888888889,
          "height": 11.11111111111111
        }
      },
      {
        "name": "snwhAt",
        "type": "swr-sense-navigation",
        "col": 31,
        "row": 16,
        "colspan": 5,
        "rowspan": 2,
        "bounds": {
          "y": 88.88888888888889,
          "x": 86.11111111111111,
          "width": 13.88888888888889,
          "height": 11.11111111111111
        }
      },
      {
        "name": "fgrf",
        "type": "filterpane",
        "col": 32,
        "row": 0,
        "colspan": 4,
        "rowspan": 2,
        "bounds": {
          "y": 0,
          "x": 88.88888888888889,
          "width": 11.11111111111111,
          "height": 11.11111111111111
        }
      },
      {
        "name": "sannDn",
        "type": "text-image",
        "col": 17,
        "row": 11,
        "colspan": 2,
        "rowspan": 4,
        "bounds": {
          "y": 61.111111111111114,
          "x": 47.22222222222222,
          "width": 5.555555555555555,
          "height": 22.22222222222222
        }
      },
      {
        "name": "BkxPvr",
        "type": "table",
        "col": 32,
        "row": 11,
        "colspan": 4,
        "rowspan": 5,
        "bounds": {
          "y": 61.111111111111114,
          "x": 88.88888888888889,
          "width": 11.11111111111111,
          "height": 27.77777777777778
        }
      }
    ],
    "qChildListDef": {
      "qData": {
        "title": "/title"
      }
    },
    "gridResolution": "large"
  },
  "qChildren": [
    {
      "qProperty": {
        "qInfo": {
          "qId": "XTPEW",
          "qType": "filterpane"
        },
        "qMetaDef": {},
        "qChildListDef": {
          "qData": {
            "info": "/qInfo"
          }
        },
        "showTitles": false,
        "title": "",
        "subtitle": "",
        "footnote": "",
        "showDetails": false,
        "visualization": "filterpane"
      },
      "qChildren": [
        {
          "qProperty": {
            "qInfo": {
              "qId": "aPwYgu",
              "qType": "listbox"
            },
            "qMetaDef": {},
            "qListObjectDef": {
              "qDef": {
                "qGrouping": "N",
                "qFieldDefs": [
                  "=Month"
                ],
                "qFieldLabels": [
                  "=Month"
                ],
                "qSortCriterias": [
                  {
                    "qSortByState": 1,
                    "qSortByNumeric": 1,
                    "qSortByLoadOrder": 1,
                    "qExpression": {}
                  }
                ],
                "qNumberPresentations": [],
                "qActiveField": 0,
                "autoSort": false,
                "cId": "yttuF"
              },
              "qFrequencyMode": "N",
              "qShowAlternatives": true,
              "qInitialDataFetch": [],
              "qExpressions": [],
              "qOtherTotalSpec": {}
            },
            "showTitles": true,
            "title": "Month",
            "subtitle": "",
            "footnote": "",
            "showDetails": false,
            "visualization": "listbox"
          },
          "qChildren": []
        }
      ]
    },
    {
      "qProperty": {
        "qInfo": {
          "qId": "vMbfs",
          "qType": "filterpane"
        },
        "qMetaDef": {},
        "qChildListDef": {
          "qData": {
            "info": "/qInfo"
          }
        },
        "showTitles": false,
        "title": "",
        "subtitle": "",
        "footnote": "",
        "showDetails": false,
        "visualization": "filterpane"
      },
      "qChildren": [
        {
          "qProperty": {
            "qInfo": {
              "qId": "rezrP",
              "qType": "listbox"
            },
            "qMetaDef": {},
            "qListObjectDef": {
              "qDef": {
                "qGrouping": "N",
                "qFieldDefs": [
                  "=[Site group]"
                ],
                "qFieldLabels": [
                  "=[Site group]"
                ],
                "qSortCriterias": [
                  {
                    "qSortByState": 1,
                    "qSortByNumeric": 1,
                    "qSortByAscii": 1,
                    "qSortByLoadOrder": 1,
                    "qExpression": {}
                  }
                ],
                "qNumberPresentations": [],
                "qActiveField": 0,
                "autoSort": true,
                "cId": "zkNpyJG"
              },
              "qFrequencyMode": "N",
              "qShowAlternatives": true,
              "qInitialDataFetch": [],
              "qExpressions": [],
              "qOtherTotalSpec": {}
            },
            "showTitles": true,
            "title": "Site group",
            "subtitle": "",
            "footnote": "",
            "showDetails": false,
            "visualization": "listbox"
          },
          "qChildren": []
        }
      ]
    },
    {
      "qProperty": {
        "qInfo": {
          "qId": "sannDn",
          "qType": "text-image"
        },
        "qMetaDef": {},
        "qHyperCubeDef": {
          "qDimensions": [],
          "qMeasures": [],
          "qInterColumnSortOrder": [],
          "qInitialDataFetch": [],
          "qReductionMode": "N",
          "qMode": "S",
          "qPseudoDimPos": -1,
          "qNoOfLeftDims": -1,
          "qMaxStackedCells": 5000,
          "qCalcCond": {},
          "qTitle": {},
          "qCalcCondition": {
            "qCond": {},
            "qMsg": {}
          },
          "qColumnOrder": [],
          "qLayoutExclude": {
            "qHyperCubeDef": {
              "qDimensions": [],
              "qMeasures": [],
              "qInterColumnSortOrder": [],
              "qInitialDataFetch": [],
              "qReductionMode": "N",
              "qMode": "S",
              "qPseudoDimPos": -1,
              "qNoOfLeftDims": -1,
              "qMaxStackedCells": 5000,
              "qCalcCond": {},
              "qTitle": {},
              "qCalcCondition": {
                "qCond": {},
                "qMsg": {}
              },
              "qColumnOrder": []
            }
          }
        },
        "showTitles": false,
        "title": "",
        "subtitle": "",
        "footnote": "",
        "showDetails": false,
        "responsive": "images",
        "markdown": "",
        "images": [],
        "background": {
          "isUsed": true,
          "size": "fill",
          "position": "centerCenter",
          "url": {
            "qStaticContentUrlDef": {
              "qUrl": "/appcontent/9207f488-24a3-4b7e-a945-d436c7633624/Screenshot 2019-07-17 at 17.18.42.png"
            }
          }
        },
        "visualization": "text-image"
      },
      "qChildren": []
    },
    {
      "qProperty": {
        "qInfo": {
          "qId": "Qxbmp",
          "qType": "combochart"
        },
        "qMetaDef": {},
        "qHyperCubeDef": {
          "qDimensions": [
            {
              "qDef": {
                "qGrouping": "N",
                "qFieldDefs": [
                  "= Month\r\n"
                ],
                "qFieldLabels": [
                  "Month"
                ],
                "qSortCriterias": [
                  {
                    "qSortByNumeric": 1,
                    "qSortByLoadOrder": 1,
                    "qExpression": {}
                  }
                ],
                "qNumberPresentations": [],
                "qActiveField": 0,
                "autoSort": false,
                "cId": "qRCRMSm",
                "othersLabel": "Autres"
              },
              "qOtherTotalSpec": {
                "qOtherMode": "OTHER_OFF",
                "qOtherCounted": {
                  "qv": "10"
                },
                "qOtherLimit": {
                  "qv": "0"
                },
                "qOtherLimitMode": "OTHER_GE_LIMIT",
                "qForceBadValueKeeping": true,
                "qApplyEvenWhenPossiblyWrongResult": true,
                "qOtherSortMode": "OTHER_SORT_DESCENDING",
                "qTotalMode": "TOTAL_OFF",
                "qReferencedExpression": {}
              },
              "qOtherLabel": {
                "qv": "Autres"
              },
              "qTotalLabel": {},
              "qCalcCond": {},
              "qAttributeExpressions": [],
              "qAttributeDimensions": [],
              "qCalcCondition": {
                "qCond": {},
                "qMsg": {}
              }
            }
          ],
          "qMeasures": [
            {
              "qDef": {
                "qLabel": "Site shipments result 2",
                "qTags": [],
                "qGrouping": "N",
                "qDef": "sum({<%ResultName={'$(vBaselineSim)'}, [Date]={\"<=$(vShipmentMaxDate)\"}, [Warehouse Level]={'Site groups'}>} [Number of Shipments (Mean)])\r\n\n\t//** The curves show the average Number of shipments by Site groups from Baseline result \n   \t//** Where Data is limited to the variable (vShipmentMaxDate) as this is the maximum date both results have in common' ",
                "qNumFormat": {
                  "qType": "F",
                  "qnDec": 2,
                  "qUseThou": 0,
                  "qFmt": "#,##0.00",
                  "qDec": ".",
                  "qThou": ","
                },
                "qAccumulate": 0,
                "qActiveExpression": 0,
                "qExpressions": [],
                "qLabelExpression": "='# of shipments to sites (' & '$(vBaselineSim))'",
                "autoSort": true,
                "cId": "TWYTVQ",
                "numFormatFromTemplate": true,
                "series": {
                  "type": "line",
                  "axis": 0,
                  "marker": "circle",
                  "markerFill": true
                },
                "coloring": {
                  "baseColor": {
                    "color": "#8cbb13",
                    "index": -1
                  }
                },
                "isCustomFormatted": false
              },
              "qSortBy": {
                "qSortByNumeric": -1,
                "qSortByLoadOrder": 1,
                "qExpression": {}
              },
              "qAttributeExpressions": [],
              "qAttributeDimensions": [],
              "qCalcCond": {},
              "qCalcCondition": {
                "qCond": {},
                "qMsg": {}
              }
            },
            {
              "qDef": {
                "qLabel": "Site shipments result 1",
                "qTags": [],
                "qGrouping": "N",
                "qDef": "sum({<%ResultName={'$(vLatestSim)'}, [Date]={\"<=$(vShipmentMaxDate)\"}, [Warehouse Level]={'Site groups'}>} [Number of Shipments (Mean)])\r\n\n\t//** The curves show the average Number of shipments by Site groups from latest result    \n    //**\tWhere Data is limited to the variable (vShipmentMaxDate) as this is the maximum date both results have in common' \n    ",
                "qNumFormat": {
                  "qType": "F",
                  "qnDec": 2,
                  "qUseThou": 0,
                  "qFmt": "#,##0.00",
                  "qDec": ".",
                  "qThou": ","
                },
                "qAccumulate": 0,
                "qActiveExpression": 0,
                "qExpressions": [],
                "qLabelExpression": "='# of shipments to sites (' & '$(vLatestSim))'",
                "autoSort": true,
                "cId": "Kdnfqm",
                "numFormatFromTemplate": true,
                "series": {
                  "type": "line",
                  "axis": 0,
                  "marker": "circle",
                  "markerFill": true
                },
                "coloring": {
                  "baseColor": {
                    "color": "#00acc2",
                    "index": -1
                  }
                },
                "isCustomFormatted": false
              },
              "qSortBy": {
                "qSortByNumeric": -1,
                "qSortByLoadOrder": 1,
                "qExpression": {}
              },
              "qAttributeExpressions": [],
              "qAttributeDimensions": [],
              "qCalcCond": {},
              "qCalcCondition": {
                "qCond": {},
                "qMsg": {}
              }
            }
          ],
          "qInterColumnSortOrder": [
            0,
            1,
            2
          ],
          "qSuppressZero": true,
          "qSuppressMissing": true,
          "qInitialDataFetch": [
            {
              "qLeft": 0,
              "qTop": 0,
              "qWidth": 17,
              "qHeight": 500
            }
          ],
          "qReductionMode": "N",
          "qMode": "S",
          "qPseudoDimPos": -1,
          "qNoOfLeftDims": -1,
          "qMaxStackedCells": 5000,
          "qCalcCond": {},
          "qTitle": {},
          "qCalcCondition": {
            "qCond": {},
            "qMsg": {}
          },
          "qColumnOrder": [],
          "qLayoutExclude": {
            "qHyperCubeDef": {
              "qDimensions": [],
              "qMeasures": [],
              "qInterColumnSortOrder": [],
              "qInitialDataFetch": [],
              "qReductionMode": "N",
              "qMode": "S",
              "qPseudoDimPos": -1,
              "qNoOfLeftDims": -1,
              "qMaxStackedCells": 5000,
              "qCalcCond": {},
              "qTitle": {},
              "qCalcCondition": {
                "qCond": {},
                "qMsg": {}
              },
              "qColumnOrder": []
            }
          }
        },
        "showTitles": true,
        "title": "Number of site shipments throughout time",
        "subtitle": {
          "qStringExpression": {
            "qExpr": "='Data is limited to ' & '$(vShipmentMaxDate)' &' as this is the maximum date both results have in common'"
          }
        },
        "footnote": "",
        "showDetails": false,
        "barGrouping": {
          "grouping": "grouped"
        },
        "orientation": "vertical",
        "scrollStartPos": 0,
        "nullMode": "connect",
        "dataPoint": {
          "show": false,
          "showLineLabels": false,
          "showBarLabels": false
        },
        "color": {
          "auto": true,
          "mode": "primary",
          "useBaseColors": "off",
          "paletteColor": {
            "index": 6
          },
          "useDimColVal": true,
          "useMeasureGradient": true,
          "persistent": false,
          "expressionIsColor": true,
          "expressionLabel": "",
          "measureScheme": "sg",
          "reverseScheme": false,
          "dimensionScheme": "12",
          "autoMinMax": true,
          "measureMin": 0,
          "measureMax": 10
        },
        "legend": {
          "show": true,
          "dock": "bottom",
          "showTitle": false
        },
        "dimensionAxis": {
          "continuousAuto": false,
          "show": "labels",
          "label": "auto",
          "dock": "near"
        },
        "preferContinuousAxis": false,
        "showMiniChartForContinuousAxis": false,
        "measureAxes": [
          {
            "show": "labels",
            "dock": "near",
            "spacing": 0.5,
            "autoMinMax": true,
            "minMax": "minMax",
            "min": 0,
            "max": 10
          },
          {
            "show": "all",
            "dock": "far",
            "spacing": 0.5,
            "autoMinMax": false,
            "minMax": "min",
            "min": 0,
            "max": 10
          }
        ],
        "visualization": "combochart"
      },
      "qChildren": []
    },
    {
      "qProperty": {
        "qInfo": {
          "qId": "fgrf",
          "qType": "filterpane"
        },
        "qMetaDef": {},
        "qChildListDef": {
          "qData": {
            "info": "/qInfo"
          }
        },
        "showTitles": false,
        "title": "",
        "subtitle": "",
        "footnote": "",
        "showDetails": false,
        "visualization": "filterpane"
      },
      "qChildren": [
        {
          "qProperty": {
            "qInfo": {
              "qId": "XMjAHD",
              "qType": "listbox"
            },
            "qMetaDef": {},
            "qListObjectDef": {
              "qDef": {
                "qGrouping": "N",
                "qFieldDefs": [
                  "ResultName"
                ],
                "qFieldLabels": [
                  "%ResultName"
                ],
                "qSortCriterias": [
                  {
                    "qSortByState": 1,
                    "qSortByNumeric": 1,
                    "qSortByAscii": 1,
                    "qSortByLoadOrder": 1,
                    "qExpression": {}
                  }
                ],
                "qNumberPresentations": [],
                "qActiveField": 0,
                "autoSort": true,
                "cId": "PejxjT"
              },
              "qFrequencyMode": "N",
              "qShowAlternatives": true,
              "qInitialDataFetch": [],
              "qExpressions": [],
              "qOtherTotalSpec": {}
            },
            "showTitles": true,
            "title": "Result",
            "subtitle": "",
            "footnote": "",
            "showDetails": false,
            "visualization": "listbox"
          },
          "qChildren": []
        }
      ]
    },
    {
      "qProperty": {
        "qInfo": {
          "qId": "BkxPvr",
          "qType": "table"
        },
        "qMetaDef": {},
        "qHyperCubeDef": {
          "qDimensions": [
            {
              "qDef": {
                "qGrouping": "N",
                "qFieldDefs": [
                  "=[Result_Name_without_difference]"
                ],
                "qFieldLabels": [
                  "Color legend"
                ],
                "qSortCriterias": [
                  {
                    "qSortByNumeric": 1,
                    "qSortByAscii": 1,
                    "qSortByLoadOrder": 1,
                    "qSortByExpression": 1,
                    "qExpression": {
                      "qv": "Result_No"
                    }
                  }
                ],
                "qNumberPresentations": [],
                "qActiveField": 0,
                "autoSort": false,
                "cId": "JzVmhU",
                "othersLabel": "Autres",
                "textAlign": {
                  "auto": true,
                  "align": "left"
                },
                "representation": {
                  "type": "text",
                  "urlLabel": ""
                }
              },
              "qOtherTotalSpec": {
                "qOtherMode": "OTHER_OFF",
                "qOtherCounted": {
                  "qv": "10"
                },
                "qOtherLimit": {
                  "qv": "0"
                },
                "qOtherLimitMode": "OTHER_GE_LIMIT",
                "qForceBadValueKeeping": true,
                "qApplyEvenWhenPossiblyWrongResult": true,
                "qOtherSortMode": "OTHER_SORT_DESCENDING",
                "qTotalMode": "TOTAL_OFF",
                "qReferencedExpression": {}
              },
              "qOtherLabel": {
                "qv": "Autres"
              },
              "qTotalLabel": {},
              "qCalcCond": {},
              "qAttributeExpressions": [
                {
                  "qExpression": "     if(Result_Name_without_difference='$(vBaselineSim)'\r\n        ,RGB(140,187,19),//Green\n     if(Result_Name_without_difference='$(vLatestSim)'\n        ,RGB(0,172,194) //Blue\n        ,RGB(253,174,97) //Orange\n        ))\n        \n            //** A table has been created on back-end to color the field [Result_Name] **// ",
                  "qAttribute": true,
                  "id": "cellBackgroundColor"
                }
              ],
              "qAttributeDimensions": [],
              "qCalcCondition": {
                "qCond": {},
                "qMsg": {}
              }
            }
          ],
          "qMeasures": [],
          "qInterColumnSortOrder": [
            0
          ],
          "qSuppressMissing": true,
          "qInitialDataFetch": [],
          "qReductionMode": "N",
          "qMode": "S",
          "qPseudoDimPos": -1,
          "qNoOfLeftDims": -1,
          "qMaxStackedCells": 5000,
          "qCalcCond": {},
          "qTitle": {},
          "qCalcCondition": {
            "qCond": {},
            "qMsg": {}
          },
          "qColumnOrder": [
            0
          ],
          "columnOrder": [
            0
          ],
          "columnWidths": [
            143.5500030517578
          ],
          "qLayoutExclude": {
            "qHyperCubeDef": {
              "qDimensions": [],
              "qMeasures": [],
              "qInterColumnSortOrder": [],
              "qInitialDataFetch": [],
              "qReductionMode": "N",
              "qMode": "S",
              "qPseudoDimPos": -1,
              "qNoOfLeftDims": -1,
              "qMaxStackedCells": 5000,
              "qCalcCond": {},
              "qTitle": {},
              "qCalcCondition": {
                "qCond": {},
                "qMsg": {}
              },
              "qColumnOrder": []
            }
          }
        },
        "showTitles": false,
        "title": "",
        "subtitle": "",
        "footnote": "",
        "showDetails": false,
        "totals": {
          "show": false,
          "position": "noTotals",
          "label": ""
        },
        "scrolling": {
          "keepFirstColumnInView": true,
          "horizontal": false
        },
        "multiline": {
          "wrapTextInHeaders": true,
          "wrapTextInCells": true
        },
        "visualization": "table"
      },
      "qChildren": []
    },
    {
      "qProperty": {
        "qInfo": {
          "qId": "AgPJJE",
          "qType": "swr-sense-navigation"
        },
        "qMetaDef": {},
        "showTitles": false,
        "title": "",
        "subtitle": "",
        "footnote": "",
        "showDetails": true,
        "props": {
          "buttonLabel": "Welcome",
          "buttonStyle": "primary",
          "fullWidth": true,
          "buttonAlign": "left",
          "buttonIcon": "",
          "action": "gotoSheet",
          "sheetId": "",
          "selectedSheet": "b2975003-9ebe-4655-93ee-56963974967e",
          "selectedStory": "",
          "websiteUrl": "",
          "isActionsBefore": false,
          "actionBefore1": "none",
          "field1": "",
          "variable1": "",
          "value1": "",
          "bookmark1": "",
          "actionBefore2": "none",
          "field2": "",
          "variable2": "",
          "value2": "",
          "bookmark2": ""
        },
        "visualization": "swr-sense-navigation",
        "version": "0.5.8",
        "extensionMeta": {
          "translationKey": "",
          "icon": "puzzle",
          "iconChar": "g",
          "isLibraryItem": true,
          "visible": true,
          "name": "Sheet Navigation & Actions",
          "description": "Sense Sheet Navigation + Actions visualization extension for Qlik Sense.",
          "template": "swr-sense-navigation",
          "isThirdParty": true,
          "type": "visualization",
          "version": "0.5.8",
          "preview": "swr-sense-navigation.png",
          "author": "Stefan Walther",
          "license": "MIT",
          "homepage": "http://github.com/stefanwalther/sense-navigation",
          "keywords": "qlik-sense, visualization",
          "repository": "https://github.com/stefanwalther/sense-navigation",
          "dependencies": {
            "qlik-sense": ">=2.1.1"
          },
          "previewIconURL": "../extensions/swr-sense-navigation/swr-sense-navigation.png"
        }
      },
      "qChildren": []
    },
    {
      "qProperty": {
        "qInfo": {
          "qId": "eevPS",
          "qType": "swr-sense-navigation"
        },
        "qMetaDef": {},
        "showTitles": false,
        "title": "",
        "subtitle": "",
        "footnote": "",
        "showDetails": false,
        "props": {
          "buttonLabel": "KPIs overview",
          "buttonStyle": "info",
          "fullWidth": true,
          "buttonAlign": "left",
          "buttonIcon": "",
          "action": "gotoSheet",
          "sheetId": "",
          "selectedSheet": "002739ac-adb0-4c90-90dd-7849c075525f",
          "selectedStory": "",
          "websiteUrl": "",
          "isActionsBefore": false,
          "actionBefore1": "none",
          "field1": "",
          "variable1": "",
          "value1": "",
          "bookmark1": "",
          "actionBefore2": "none",
          "field2": "",
          "variable2": "",
          "value2": "",
          "bookmark2": ""
        },
        "visualization": "swr-sense-navigation",
        "version": "0.5.8",
        "extensionMeta": {
          "translationKey": "",
          "icon": "puzzle",
          "iconChar": "g",
          "isLibraryItem": true,
          "visible": true,
          "name": "Sheet Navigation & Actions",
          "description": "Sense Sheet Navigation + Actions visualization extension for Qlik Sense.",
          "template": "swr-sense-navigation",
          "isThirdParty": true,
          "type": "visualization",
          "version": "0.5.8",
          "preview": "swr-sense-navigation.png",
          "author": "Stefan Walther",
          "license": "MIT",
          "homepage": "http://github.com/stefanwalther/sense-navigation",
          "keywords": "qlik-sense, visualization",
          "repository": "https://github.com/stefanwalther/sense-navigation",
          "dependencies": {
            "qlik-sense": ">=2.1.1"
          },
          "previewIconURL": "../extensions/swr-sense-navigation/swr-sense-navigation.png"
        },
        "qLayoutExclude": {
          "disabled": {
            "qExtendsId": ""
          }
        }
      },
      "qChildren": []
    },
    {
      "qProperty": {
        "qInfo": {
          "qId": "Ty",
          "qType": "swr-sense-navigation"
        },
        "qMetaDef": {},
        "showTitles": false,
        "title": "",
        "subtitle": "",
        "footnote": "",
        "showDetails": false,
        "props": {
          "buttonLabel": "Recruitment",
          "buttonStyle": "info",
          "fullWidth": true,
          "buttonAlign": "left",
          "buttonIcon": "",
          "action": "gotoSheet",
          "sheetId": "",
          "selectedSheet": "2f497bfd-3539-40b8-a843-31a7813bd096",
          "selectedStory": "",
          "websiteUrl": "",
          "isActionsBefore": false,
          "actionBefore1": "none",
          "field1": "",
          "variable1": "",
          "value1": "",
          "bookmark1": "",
          "actionBefore2": "none",
          "field2": "",
          "variable2": "",
          "value2": "",
          "bookmark2": ""
        },
        "visualization": "swr-sense-navigation",
        "version": "0.5.8",
        "extensionMeta": {
          "translationKey": "",
          "icon": "puzzle",
          "iconChar": "g",
          "isLibraryItem": true,
          "visible": true,
          "name": "Sheet Navigation & Actions",
          "description": "Sense Sheet Navigation + Actions visualization extension for Qlik Sense.",
          "template": "swr-sense-navigation",
          "isThirdParty": true,
          "type": "visualization",
          "version": "0.5.8",
          "preview": "swr-sense-navigation.png",
          "author": "Stefan Walther",
          "license": "MIT",
          "homepage": "http://github.com/stefanwalther/sense-navigation",
          "keywords": "qlik-sense, visualization",
          "repository": "https://github.com/stefanwalther/sense-navigation",
          "dependencies": {
            "qlik-sense": ">=2.1.1"
          },
          "previewIconURL": "../extensions/swr-sense-navigation/swr-sense-navigation.png"
        }
      },
      "qChildren": []
    },
    {
      "qProperty": {
        "qInfo": {
          "qId": "KjRSZ",
          "qType": "swr-sense-navigation"
        },
        "qMetaDef": {},
        "showTitles": false,
        "title": "",
        "subtitle": "",
        "footnote": "",
        "showDetails": false,
        "props": {
          "buttonLabel": "Dispensing",
          "buttonStyle": "info",
          "fullWidth": true,
          "buttonAlign": "left",
          "buttonIcon": "",
          "action": "gotoSheet",
          "sheetId": "",
          "selectedSheet": "87bc2c1d-6752-491e-b9ad-bdeea4aabefa",
          "selectedStory": "",
          "websiteUrl": "",
          "isActionsBefore": false,
          "actionBefore1": "none",
          "field1": "",
          "variable1": "",
          "value1": "",
          "bookmark1": "",
          "actionBefore2": "none",
          "field2": "",
          "variable2": "",
          "value2": "",
          "bookmark2": ""
        },
        "visualization": "swr-sense-navigation",
        "version": "0.5.8",
        "extensionMeta": {
          "translationKey": "",
          "icon": "puzzle",
          "iconChar": "g",
          "isLibraryItem": true,
          "visible": true,
          "name": "Sheet Navigation & Actions",
          "description": "Sense Sheet Navigation + Actions visualization extension for Qlik Sense.",
          "template": "swr-sense-navigation",
          "isThirdParty": true,
          "type": "visualization",
          "version": "0.5.8",
          "preview": "swr-sense-navigation.png",
          "author": "Stefan Walther",
          "license": "MIT",
          "homepage": "http://github.com/stefanwalther/sense-navigation",
          "keywords": "qlik-sense, visualization",
          "repository": "https://github.com/stefanwalther/sense-navigation",
          "dependencies": {
            "qlik-sense": ">=2.1.1"
          },
          "previewIconURL": "../extensions/swr-sense-navigation/swr-sense-navigation.png"
        }
      },
      "qChildren": []
    },
    {
      "qProperty": {
        "qInfo": {
          "qId": "fJuyXr",
          "qType": "swr-sense-navigation"
        },
        "qMetaDef": {},
        "showTitles": false,
        "title": "",
        "subtitle": "",
        "footnote": "",
        "showDetails": false,
        "props": {
          "buttonLabel": "Recommendations",
          "buttonStyle": "info",
          "fullWidth": true,
          "buttonAlign": "left",
          "buttonIcon": "",
          "action": "gotoSheet",
          "sheetId": "",
          "selectedSheet": "1e728219-c7a3-4ac4-ad42-07be4cf3c2a7",
          "selectedStory": "",
          "websiteUrl": "",
          "isActionsBefore": false,
          "actionBefore1": "none",
          "field1": "",
          "variable1": "",
          "value1": "",
          "bookmark1": "",
          "actionBefore2": "none",
          "field2": "",
          "variable2": "",
          "value2": "",
          "bookmark2": ""
        },
        "visualization": "swr-sense-navigation",
        "version": "0.5.8",
        "extensionMeta": {
          "translationKey": "",
          "icon": "puzzle",
          "iconChar": "g",
          "isLibraryItem": true,
          "visible": true,
          "name": "Sheet Navigation & Actions",
          "description": "Sense Sheet Navigation + Actions visualization extension for Qlik Sense.",
          "template": "swr-sense-navigation",
          "isThirdParty": true,
          "type": "visualization",
          "version": "0.5.8",
          "preview": "swr-sense-navigation.png",
          "author": "Stefan Walther",
          "license": "MIT",
          "homepage": "http://github.com/stefanwalther/sense-navigation",
          "keywords": "qlik-sense, visualization",
          "repository": "https://github.com/stefanwalther/sense-navigation",
          "dependencies": {
            "qlik-sense": ">=2.1.1"
          },
          "previewIconURL": "../extensions/swr-sense-navigation/swr-sense-navigation.png"
        }
      },
      "qChildren": []
    },
    {
      "qProperty": {
        "qInfo": {
          "qId": "gucYNPL",
          "qType": "swr-sense-navigation"
        },
        "qMetaDef": {},
        "showTitles": false,
        "title": "",
        "subtitle": "",
        "footnote": "",
        "showDetails": false,
        "props": {
          "buttonLabel": "Risk",
          "buttonStyle": "info",
          "fullWidth": true,
          "buttonAlign": "left",
          "buttonIcon": "",
          "action": "gotoSheet",
          "sheetId": "",
          "selectedSheet": "7a224eb5-193a-4f43-8fb6-6e2322f896a9",
          "selectedStory": "",
          "websiteUrl": "",
          "isActionsBefore": false,
          "actionBefore1": "none",
          "field1": "",
          "variable1": "",
          "value1": "",
          "bookmark1": "",
          "actionBefore2": "none",
          "field2": "",
          "variable2": "",
          "value2": "",
          "bookmark2": ""
        },
        "visualization": "swr-sense-navigation",
        "version": "0.5.8",
        "extensionMeta": {
          "translationKey": "",
          "icon": "puzzle",
          "iconChar": "g",
          "isLibraryItem": true,
          "visible": true,
          "name": "Sheet Navigation & Actions",
          "description": "Sense Sheet Navigation + Actions visualization extension for Qlik Sense.",
          "template": "swr-sense-navigation",
          "isThirdParty": true,
          "type": "visualization",
          "version": "0.5.8",
          "preview": "swr-sense-navigation.png",
          "author": "Stefan Walther",
          "license": "MIT",
          "homepage": "http://github.com/stefanwalther/sense-navigation",
          "keywords": "qlik-sense, visualization",
          "repository": "https://github.com/stefanwalther/sense-navigation",
          "dependencies": {
            "qlik-sense": ">=2.1.1"
          },
          "previewIconURL": "../extensions/swr-sense-navigation/swr-sense-navigation.png"
        }
      },
      "qChildren": []
    },
    {
      "qProperty": {
        "qInfo": {
          "qId": "snwhAt",
          "qType": "swr-sense-navigation"
        },
        "qMetaDef": {},
        "showTitles": false,
        "title": "",
        "subtitle": "",
        "footnote": "",
        "showDetails": false,
        "props": {
          "buttonLabel": "Site shipments",
          "buttonStyle": "default",
          "fullWidth": true,
          "buttonAlign": "left",
          "buttonIcon": "",
          "action": "gotoSheet",
          "sheetId": "",
          "selectedSheet": "b1944958-ac1f-443a-aa20-0a7aec97ef35",
          "selectedStory": "",
          "websiteUrl": "",
          "isActionsBefore": false,
          "actionBefore1": "none",
          "field1": "",
          "variable1": "",
          "value1": "",
          "bookmark1": "",
          "actionBefore2": "none",
          "field2": "",
          "variable2": "",
          "value2": "",
          "bookmark2": ""
        },
        "visualization": "swr-sense-navigation",
        "version": "0.5.8",
        "extensionMeta": {
          "translationKey": "",
          "icon": "puzzle",
          "iconChar": "g",
          "isLibraryItem": true,
          "visible": true,
          "name": "Sheet Navigation & Actions",
          "description": "Sense Sheet Navigation + Actions visualization extension for Qlik Sense.",
          "template": "swr-sense-navigation",
          "isThirdParty": true,
          "type": "visualization",
          "version": "0.5.8",
          "preview": "swr-sense-navigation.png",
          "author": "Stefan Walther",
          "license": "MIT",
          "homepage": "http://github.com/stefanwalther/sense-navigation",
          "keywords": "qlik-sense, visualization",
          "repository": "https://github.com/stefanwalther/sense-navigation",
          "dependencies": {
            "qlik-sense": ">=2.1.1"
          },
          "previewIconURL": "../extensions/swr-sense-navigation/swr-sense-navigation.png"
        }
      },
      "qChildren": []
    },
    {
      "qProperty": {
        "qInfo": {
          "qId": "XKBdGpy",
          "qType": "filterpane"
        },
        "qMetaDef": {},
        "qChildListDef": {
          "qData": {
            "info": "/qInfo"
          }
        },
        "showTitles": false,
        "title": "",
        "subtitle": "",
        "footnote": "",
        "showDetails": false,
        "visualization": "filterpane"
      },
      "qChildren": [
        {
          "qProperty": {
            "qInfo": {
              "qId": "DNTtRG",
              "qType": "listbox"
            },
            "qMetaDef": {},
            "qListObjectDef": {
              "qDef": {
                "qGrouping": "N",
                "qFieldDefs": [
                  "=[Temperature Label]"
                ],
                "qFieldLabels": [
                  "=[Temperature Label]"
                ],
                "qSortCriterias": [
                  {
                    "qSortByState": 1,
                    "qSortByNumeric": 1,
                    "qSortByAscii": 1,
                    "qSortByLoadOrder": 1,
                    "qExpression": {}
                  }
                ],
                "qNumberPresentations": [],
                "qActiveField": 0,
                "autoSort": true,
                "cId": "PejxjT"
              },
              "qFrequencyMode": "N",
              "qShowAlternatives": true,
              "qInitialDataFetch": [],
              "qExpressions": [],
              "qOtherTotalSpec": {}
            },
            "showTitles": true,
            "title": "Temperature type",
            "subtitle": "",
            "footnote": "",
            "showDetails": false,
            "visualization": "listbox"
          },
          "qChildren": []
        }
      ]
    },
    {
      "qProperty": {
        "qInfo": {
          "qId": "JrUJyD",
          "qType": "qlik-multi-kpi"
        },
        "qMetaDef": {},
        "qHyperCubeDef": {
          "qDimensions": [],
          "qMeasures": [
            {
              "qDef": {
                "qLabel": "Delta",
                "qTags": [],
                "qGrouping": "N",
                "qDef": "''",
                "qNumFormat": {
                  "qType": "U",
                  "qnDec": 10,
                  "qUseThou": 0
                },
                "qAccumulate": 0,
                "qActiveExpression": 0,
                "qExpressions": [],
                "autoSort": true,
                "cId": "Djux",
                "numFormatFromTemplate": true,
                "autoFormatTemplate": "0A",
                "labelColor": "#535f6b",
                "valueColor": "#F4A74F",
                "useLink": false,
                "kpiLink": "",
                "hideLabel": true,
                "hideValue": false,
                "groupByDimension": false,
                "groupByDimensionValue": "",
                "ovParams": true,
                "size": "huge",
                "labelOrientation": "",
                "labelOrder": "first",
                "fontStyles": "",
                "textAlignment": "right",
                "valueIcon": {
                  "qStringExpression": {
                    "qExpr": "=\r\n\nif(\n\tRound(\n        Sum({$<%ResultName={'$(vLatestSim)'},ResultName={'$(vLatestSim)'}>}[Site Shipments]),0.01)\n        -\n    Round(\n        Sum({$<%ResultName={'$(vBaselineSim)'},ResultName={'$(vBaselineSim)'}>}[Site Shipments]),0.01)\n   =0\n   ,'angle double right icon'\n   ,if(\n     Round(\n        Sum({$<%ResultName={'$(vLatestSim)'},ResultName={'$(vLatestSim)'}>}[Site Shipments]),0.01)\n        -\n     Round(\n        Sum({$<%ResultName={'$(vBaselineSim)'},ResultName={'$(vBaselineSim)'}>}[Site Shipments]),0.01)\n   >0\n   ,'angle double up icon'\n   ,'angle double down icon'\n)\n)\n\n\t//** We compare the number of the future Site shipments between two results \n    \t/* To make the comparison easier visually, we use orange icon which his angle in on the right if there isn't difference between results,\n    \t   down if the latest result is upper than the starting result and vice versa \n\t//** The field %ResultName is important in order to freeze the value of result at the ExtractDate \n    //** The field [ResultName] is useful to have value for each result\n    //** The function Round(0.01) is useful to have same granularities\n"
                  }
                },
                "iconPosition": "value",
                "iconOrder": "last",
                "iconSize": "huge",
                "infographic": false,
                "embeddedItem": ""
              },
              "qSortBy": {
                "qSortByNumeric": -1,
                "qSortByLoadOrder": 1,
                "qExpression": {}
              },
              "qAttributeExpressions": [
                {
                  "qAttribute": true
                }
              ],
              "qAttributeDimensions": [],
              "qCalcCond": {},
              "qCalcCondition": {
                "qCond": {},
                "qMsg": {}
              },
              "sheetLink": ""
            },
            {
              "qDef": {
                "qTags": [],
                "qGrouping": "N",
                "qDef": "Sum({$<%ResultName={'$(vBaselineSim)'},ResultName={'$(vBaselineSim)'}>}[Site Shipments])",
                "qNumFormat": {
                  "qType": "F",
                  "qnDec": 2,
                  "qUseThou": 0,
                  "qFmt": "#,##0.00",
                  "qDec": ".",
                  "qThou": ","
                },
                "qAccumulate": 0,
                "qActiveExpression": 0,
                "qExpressions": [],
                "qLabelExpression": "='$(vBaselineSim)' & '",
                "autoSort": true,
                "cId": "JYVqPZG",
                "numFormatFromTemplate": false,
                "autoFormatTemplate": "0A",
                "labelColor": "#535f6b",
                "valueColor": "#8CBB13",
                "useLink": false,
                "kpiLink": "",
                "hideLabel": false,
                "hideValue": false,
                "groupByDimension": false,
                "groupByDimensionValue": "",
                "ovParams": false,
                "size": " ",
                "labelOrientation": "",
                "labelOrder": "first",
                "fontStyles": "",
                "textAlignment": "center",
                "valueIcon": "",
                "iconPosition": "label",
                "iconOrder": "first",
                "iconSize": "",
                "infographic": false,
                "embeddedItem": "",
                "isCustomFormatted": false
              },
              "qSortBy": {
                "qSortByNumeric": -1,
                "qSortByLoadOrder": 1,
                "qExpression": {}
              },
              "qAttributeExpressions": [
                {
                  "qAttribute": true
                }
              ],
              "qAttributeDimensions": [],
              "qCalcCond": {},
              "qCalcCondition": {
                "qCond": {},
                "qMsg": {}
              },
              "sheetLink": ""
            },
            {
              "qDef": {
                "qTags": [],
                "qGrouping": "N",
                "qDef": "Sum({$<%ResultName={'$(vLatestSim)'},ResultName={'$(vLatestSim)'}>}[Site Shipments])",
                "qNumFormat": {
                  "qType": "F",
                  "qnDec": 2,
                  "qUseThou": 0,
                  "qFmt": "#,##0.00",
                  "qDec": ".",
                  "qThou": ","
                },
                "qAccumulate": 0,
                "qActiveExpression": 0,
                "qExpressions": [],
                "qLabelExpression": "='$(vLatestSim)' & '",
                "autoSort": true,
                "cId": "YfKHU",
                "numFormatFromTemplate": false,
                "autoFormatTemplate": "0",
                "labelColor": "#535f6b",
                "valueColor": "#00ACC2",
                "useLink": false,
                "kpiLink": "",
                "hideLabel": false,
                "hideValue": false,
                "groupByDimension": false,
                "groupByDimensionValue": "",
                "ovParams": false,
                "size": " ",
                "labelOrientation": "",
                "labelOrder": "first",
                "fontStyles": "",
                "textAlignment": "center",
                "valueIcon": "",
                "iconPosition": "label",
                "iconOrder": "first",
                "iconSize": "",
                "infographic": false,
                "embeddedItem": "",
                "isCustomFormatted": false
              },
              "qSortBy": {
                "qSortByNumeric": -1,
                "qSortByLoadOrder": 1,
                "qExpression": {}
              },
              "qAttributeExpressions": [
                {
                  "qAttribute": true
                }
              ],
              "qAttributeDimensions": [],
              "qCalcCond": {},
              "qCalcCondition": {
                "qCond": {},
                "qMsg": {}
              },
              "sheetLink": ""
            }
          ],
          "qInterColumnSortOrder": [
            0,
            1,
            2
          ],
          "qInitialDataFetch": [
            {
              "qLeft": 0,
              "qTop": 0,
              "qWidth": 125,
              "qHeight": 80
            }
          ],
          "qReductionMode": "N",
          "qMode": "S",
          "qPseudoDimPos": -1,
          "qNoOfLeftDims": -1,
          "qMaxStackedCells": 5000,
          "qCalcCond": {},
          "qTitle": {},
          "qCalcCondition": {
            "qCond": {},
            "qMsg": {}
          },
          "qColumnOrder": [],
          "customErrorMessage": {
            "calcCond": ""
          },
          "qFocus": "variance",
          "qTotal": true,
          "qCustomCaption": false,
          "qEnableSelect": false,
          "qCandyStyle": true,
          "qSpacing": 0,
          "qBorder": true,
          "qRounding": 10,
          "qSymbol": "draw",
          "qAngle": 90,
          "qAutosize": true,
          "qContrast": true,
          "qNeutrality": 5,
          "qGradient": false,
          "qInverted": false,
          "qLayoutExclude": {
            "qHyperCubeDef": {
              "qDimensions": [],
              "qMeasures": [],
              "qInterColumnSortOrder": [],
              "qInitialDataFetch": [],
              "qReductionMode": "N",
              "qMode": "S",
              "qPseudoDimPos": -1,
              "qNoOfLeftDims": -1,
              "qMaxStackedCells": 5000,
              "qCalcCond": {},
              "qTitle": {},
              "qCalcCondition": {
                "qCond": {},
                "qMsg": {}
              },
              "qColumnOrder": []
            }
          }
        },
        "showTitles": true,
        "title": "Future shipments - Site",
        "subtitle": {
          "qStringExpression": {
            "qExpr": "='Difference: '\r\n&\nNum\n(\n      Round(\n      Sum({$<%ResultName={'$(vLatestSim)'}, ResultName={'$(vLatestSim)'}>}[Site Shipments]),0.01)\n      -\n      Round(\n      Sum({$<%ResultName={'$(vBaselineSim)'}, ResultName={'$(vBaselineSim)'}>}[Site Shipments]),0.01)\n, 0.00\n)\n\n\t//** Subtitle allows to show the number of Site shipments between two results \n\t//** The field %ResultName is important in order to freeze the value of result at the ExtractDate \n    //** The field [ResultName] is useful to have value for each result\n    //** The function Round(0.01) is useful to have same granularities\n    //** The function Num(0.00) is useful to harmonize visualizations"
          }
        },
        "footnote": "",
        "showDetails": false,
        "options": {
          "dimShowAs": "segment",
          "dimDivideBy": "auto",
          "dimensionsOrientation": "horizontal",
          "dimLabelOrientation": "top attached",
          "dimLabelSize": "",
          "dimHideLabels": false,
          "dimCenteredLabels": false,
          "dimHideBorders": false,
          "dimHideInternalBorders": false,
          "labelOrientation": "horizontal",
          "labelOrder": "first",
          "size": "mini",
          "autoSize": true,
          "divideBy": "one",
          "backgroundColor": "",
          "verticalAlign": "bottom-aligned-items",
          "styles": "& .statistic {\nflex-direction: column;\nfont-size: 1vh;\n}\n\n& .statistic-2 {\nmargin: -0.5em 0em -0.5em 0em;\n}\n\n& .statistic-2 .value {\ncolor: #8CBB13;\n/text-align: right;\nfont-size: 2vh;\n}\n\n& .statistic-3 .value {\ncolor: #00ACC2;\n/text-align: right;\nfont-size: 2vh;\n}\n\n& .statistic .label {\n/background: green;\n/text-align: left;\ncolor: #535F6B;\nfont-size: 1.3vh;\n}\n\n& .statistic-1 .value {\ncolor: #F4A74F;\nmargin: 0em 0em -0.5em 4em;\nfont-size: 3vh;\n}\n\n& .statistic-3 {\nborder-bottom: 0.1em solid #cfd5da;\n}"
        },
        "visualization": "qlik-multi-kpi",
        "version": 1.4,
        "extensionMeta": {
          "translationKey": "",
          "icon": "kpi",
          "iconChar": "g",
          "isLibraryItem": true,
          "visible": true,
          "name": "Multi KPI",
          "description": "A tiled chart that shows one KPI per dimension value and measure.",
          "template": "qlik-multi-kpi",
          "isThirdParty": true,
          "author": "Alexander Nerush",
          "bundle": {
            "id": "qlik-visualization-bundle",
            "name": "Qlik Visualization bundle",
            "description": "This is a set of supported extensions that expands the visualization capabilities of Qlik Sense. These can be used in addition to the native objects found under 'Charts'. For support conditions and limitations, see the documentation."
          },
          "dependencies": {
            "qlik-sense": ">=5.5.x"
          },
          "homepage": "",
          "installer": "QlikExtensionBundler",
          "keywords": "qlik-sense, visualization",
          "license": "MIT",
          "preview": "multikpi.png",
          "repository": "",
          "type": "visualization",
          "version": "0.62.0",
          "previewIconURL": "../extensions/qlik-multi-kpi/multikpi.png"
        },
        "qLayoutExclude": {
          "disabled": {
            "qExtendsId": "",
            "dvCurrency": {
              "qStringExpression": {
                "qExpr": "'%'"
              }
            },
            "dvTotalCaption": "",
            "qLibraryId": "",
            "qDef": {
              "autoSort": true,
              "cId": "",
              "othersLabel": "Autres"
            },
            "qNullSuppression": false,
            "qOtherTotalSpec": {
              "qOtherMode": "OTHER_OFF",
              "qOtherSortMode": "OTHER_SORT_DESCENDING",
              "qOtherCounted": {
                "qv": "10"
              },
              "qOtherLimitMode": "OTHER_GE_LIMIT",
              "qOtherLimit": {
                "qv": "0"
              },
              "qSuppressOther": false
            },
            "qOtherLabel": "Autres"
          },
          "quarantine": {}
        }
      },
      "qChildren": []
    },
    {
      "qProperty": {
        "qInfo": {
          "qId": "ajKAnjh",
          "qType": "qlik-multi-kpi"
        },
        "qMetaDef": {},
        "qHyperCubeDef": {
          "qDimensions": [],
          "qMeasures": [
            {
              "qDef": {
                "qTags": [],
                "qGrouping": "N",
                "qDef": "Only({$<%ResultName={'$(vBaselineSim)'},ResultName={'$(vBaselineSim)'}>}[Reevaluation Date])\r\n\n\t//** Allows to know the date of the extract \n\t//** The field %ResultName is important in order to freeze the value of result at the ExtractDate \n    //** The field [ResultName] is useful to have value for Baseline result ",
                "qNumFormat": {
                  "qType": "D",
                  "qnDec": 2,
                  "qUseThou": 0,
                  "qFmt": "DD-MMM-YY"
                },
                "qAccumulate": 0,
                "qActiveExpression": 0,
                "qExpressions": [],
                "qLabelExpression": "='$(vBaselineSim)' & '",
                "autoSort": true,
                "cId": "JYVqPZG",
                "numFormatFromTemplate": false,
                "autoFormatTemplate": "0A",
                "labelColor": "#535f6b",
                "valueColor": "#8CBB13",
                "useLink": false,
                "kpiLink": "",
                "hideLabel": false,
                "hideValue": false,
                "groupByDimension": false,
                "groupByDimensionValue": "",
                "ovParams": false,
                "size": " ",
                "labelOrientation": "",
                "labelOrder": "first",
                "fontStyles": "",
                "textAlignment": "center",
                "valueIcon": "",
                "iconPosition": "label",
                "iconOrder": "first",
                "iconSize": "",
                "infographic": false,
                "embeddedItem": "",
                "isCustomFormatted": false
              },
              "qSortBy": {
                "qSortByNumeric": -1,
                "qSortByLoadOrder": 1,
                "qExpression": {}
              },
              "qAttributeExpressions": [
                {
                  "qAttribute": true
                }
              ],
              "qAttributeDimensions": [],
              "qCalcCond": {},
              "qCalcCondition": {
                "qCond": {},
                "qMsg": {}
              },
              "sheetLink": ""
            },
            {
              "qDef": {
                "qTags": [],
                "qGrouping": "N",
                "qDef": "Only({$<%ResultName={'$(vLatestSim)'},ResultName={'$(vLatestSim)'}>}[Reevaluation Date])\r\n\n\t//** Allows to know the date of the extract \n\t//** The field %ResultName is important in order to freeze the value of result at the ExtractDate \n    //** The field [ResultName] is useful to have value for Latest result ",
                "qNumFormat": {
                  "qType": "D",
                  "qnDec": 2,
                  "qUseThou": 0,
                  "qFmt": "DD-MMM-YY"
                },
                "qAccumulate": 0,
                "qActiveExpression": 0,
                "qExpressions": [],
                "qLabelExpression": "='$(vLatestSim)' & '",
                "autoSort": true,
                "cId": "YfKHU",
                "numFormatFromTemplate": false,
                "autoFormatTemplate": "0",
                "labelColor": "#535f6b",
                "valueColor": "#00ACC2",
                "useLink": false,
                "kpiLink": "",
                "hideLabel": false,
                "hideValue": false,
                "groupByDimension": false,
                "groupByDimensionValue": "",
                "ovParams": false,
                "size": " ",
                "labelOrientation": "",
                "labelOrder": "first",
                "fontStyles": "",
                "textAlignment": "center",
                "valueIcon": "",
                "iconPosition": "label",
                "iconOrder": "first",
                "iconSize": "",
                "infographic": false,
                "embeddedItem": "",
                "isCustomFormatted": false
              },
              "qSortBy": {
                "qSortByNumeric": -1,
                "qSortByLoadOrder": 1,
                "qExpression": {}
              },
              "qAttributeExpressions": [
                {
                  "qAttribute": true
                }
              ],
              "qAttributeDimensions": [],
              "qCalcCond": {},
              "qCalcCondition": {
                "qCond": {},
                "qMsg": {}
              },
              "sheetLink": ""
            }
          ],
          "qInterColumnSortOrder": [
            0,
            1
          ],
          "qInitialDataFetch": [
            {
              "qLeft": 0,
              "qTop": 0,
              "qWidth": 125,
              "qHeight": 80
            }
          ],
          "qReductionMode": "N",
          "qMode": "S",
          "qPseudoDimPos": -1,
          "qNoOfLeftDims": -1,
          "qMaxStackedCells": 5000,
          "qCalcCond": {},
          "qTitle": {},
          "qCalcCondition": {
            "qCond": {},
            "qMsg": {}
          },
          "qColumnOrder": [],
          "customErrorMessage": {
            "calcCond": ""
          },
          "qFocus": "variance",
          "qTotal": true,
          "qCustomCaption": false,
          "qEnableSelect": false,
          "qCandyStyle": true,
          "qSpacing": 0,
          "qBorder": true,
          "qRounding": 10,
          "qSymbol": "draw",
          "qAngle": 90,
          "qAutosize": true,
          "qContrast": true,
          "qNeutrality": 5,
          "qGradient": false,
          "qInverted": false,
          "qLayoutExclude": {
            "qHyperCubeDef": {
              "qDimensions": [],
              "qMeasures": [],
              "qInterColumnSortOrder": [],
              "qInitialDataFetch": [],
              "qReductionMode": "N",
              "qMode": "S",
              "qPseudoDimPos": -1,
              "qNoOfLeftDims": -1,
              "qMaxStackedCells": 5000,
              "qCalcCond": {},
              "qTitle": {},
              "qCalcCondition": {
                "qCond": {},
                "qMsg": {}
              },
              "qColumnOrder": []
            }
          }
        },
        "showTitles": true,
        "title": "Simulation start date",
        "subtitle": "Extract used in simulations",
        "footnote": "",
        "showDetails": false,
        "options": {
          "dimShowAs": "segment",
          "dimDivideBy": "auto",
          "dimensionsOrientation": "horizontal",
          "dimLabelOrientation": "top attached",
          "dimLabelSize": "",
          "dimHideLabels": false,
          "dimCenteredLabels": false,
          "dimHideBorders": false,
          "dimHideInternalBorders": false,
          "labelOrientation": "horizontal",
          "labelOrder": "first",
          "size": "mini",
          "autoSize": true,
          "divideBy": "one",
          "backgroundColor": "",
          "verticalAlign": "bottom-aligned-items",
          "styles": ".borderbox * {\ncursor: default;\n}\n\n& .statistic {\nflex-direction: column;\nfont-size: 1vh;\n}\n\n& .statistic-1 .value {\ncolor: #8CBB13;\n/text-align: right;\nfont-size: 2vh;\n}\n\n& .statistic-2 .value {\ncolor: #00ACC2;\n/text-align: right;\nfont-size: 2vh;\n}\n\n& .statistic .label {\n/background: green;\n/text-align: left;\ncolor: #535F6B;\nfont-size: 1.3vh;\n}\n\n& .statistic-1 {\nmargin: -0.5em 0em -0.5em 0em;\n}\n\n& .statistic-2 {\nborder-bottom: 0.1em solid #cfd5da;\n}"
        },
        "visualization": "qlik-multi-kpi",
        "version": 1.4,
        "extensionMeta": {
          "translationKey": "",
          "icon": "kpi",
          "iconChar": "g",
          "isLibraryItem": true,
          "visible": true,
          "name": "Multi KPI",
          "description": "A tiled chart that shows one KPI per dimension value and measure.",
          "template": "qlik-multi-kpi",
          "isThirdParty": true,
          "author": "Alexander Nerush",
          "bundle": {
            "id": "qlik-visualization-bundle",
            "name": "Qlik Visualization bundle",
            "description": "This is a set of supported extensions that expands the visualization capabilities of Qlik Sense. These can be used in addition to the native objects found under 'Charts'. For support conditions and limitations, see the documentation."
          },
          "dependencies": {
            "qlik-sense": ">=5.5.x"
          },
          "homepage": "",
          "installer": "QlikExtensionBundler",
          "keywords": "qlik-sense, visualization",
          "license": "MIT",
          "preview": "multikpi.png",
          "repository": "",
          "type": "visualization",
          "version": "0.62.0",
          "previewIconURL": "../extensions/qlik-multi-kpi/multikpi.png"
        },
        "qLayoutExclude": {
          "disabled": {
            "qExtendsId": "",
            "dvCurrency": {
              "qStringExpression": {
                "qExpr": "'%'"
              }
            },
            "dvTotalCaption": "",
            "qLibraryId": "",
            "qDef": {
              "autoSort": true,
              "cId": "",
              "othersLabel": "Autres"
            },
            "qNullSuppression": false,
            "qOtherTotalSpec": {
              "qOtherMode": "OTHER_OFF",
              "qOtherSortMode": "OTHER_SORT_DESCENDING",
              "qOtherCounted": {
                "qv": "10"
              },
              "qOtherLimitMode": "OTHER_GE_LIMIT",
              "qOtherLimit": {
                "qv": "0"
              },
              "qSuppressOther": false
            },
            "qOtherLabel": "Autres"
          },
          "quarantine": {}
        }
      },
      "qChildren": []
    }
  ]
}