{
  "qInfo": {
    "qId": "NmCKHm",
    "qType": "measure"
  },
  "qMeasure": {
    "qLabel": "Risk result 2",
    "qDef": "num(\r\nSum({$<%ResultName={'$(vBaselineSim)'}, [Fact Subsection]={'$(#vRisks)'}>}[# of Products at Risk (Mean)])\n,'#,##0.00')",
    "qGrouping": "N",
    "qExpressions": [],
    "qActiveExpression": 0,
    "qLabelExpression": "='$(vRisks)' & ' for '& '$(vBaselineSim)' & ' (#products)'",
    "coloring": {
      "baseColor": {
        "color": "#8cbb13",
        "index": -1
      }
    }
  },
  "qMetaDef": {
    "title": "Risk result 2",
    "description": "",
    "tags": []
  }
}