{
  "qInfo": {
    "qId": "YKxJH",
    "qType": "measure"
  },
  "qMeasure": {
    "qLabel": "Cumulated average demand result 1",
    "qDef": "sum({<%ResultName={'$(vLatestSim)'}, [Month]={\"<=$(vRecruitmentMaxDate)\"}>} [Warehouse Demand Cumulative (Mean)])",
    "qGrouping": "N",
    "qExpressions": [],
    "qActiveExpression": 0,
    "qLabelExpression": "='Patient demand (' & '$(vLatestSim))'",
    "coloring": {
      "baseColor": {
        "color": "#00acc2",
        "index": -1
      }
    }
  },
  "qMetaDef": {
    "title": "Cumulated average demand result 1",
    "description": "",
    "tags": []
  }
}