{
  "qInfo": {
    "qId": "hqHCmDV",
    "qType": "dimension"
  },
  "qDim": {
    "qGrouping": "N",
    "qFieldDefs": [
      "=date([Input Buffer Date], 'DD-MMM-YY')"
    ],
    "qFieldLabels": [
      "Buffer Date"
    ],
    "title": "Buffer Date",
    "coloring": {
      "changeHash": "0.4061019780935473"
    }
  },
  "qMetaDef": {
    "title": "Buffer Date",
    "description": "",
    "tags": []
  }
}